{
  "page": 2,
  "per_page": 10,
  "total": 26,
  "total_pages": 3,
  "data": [
    {
      "Title": "Kill Bill: The Whole Bloody Affair",
      "Year": "2011",
      "Rated": "Not Rated",
      "Released": "27 Mar 2011",
      "Runtime": "247 min",
      "Genre": "Action, Crime, Thriller",
      "Director": "Quentin Tarantino",
      "Writer": "Quentin Tarantino, Uma Thurman",
      "Actors": "Uma Thurman, Vivica A. Fox, Michael Madsen"
    },
    {
      "Title": "Irrational Man",
      "Year": "2015",
      "Rated": "R",
      "Released": "07 Aug 2015",
      "Runtime": "95 min",
      "Genre": "Comedy, Crime, Drama",
      "Director": "Woody Allen",
      "Writer": "Woody Allen",
      "Actors": "Joaquin Phoenix, Emma Stone, Parker Posey"
    },
    {
      "Title": "Underdogs",
      "Year": "2013",
      "Rated": "PG",
      "Released": "18 Jul 2013",
      "Runtime": "85 min",
      "Genre": "Animation, Adventure, Family",
      "Director": "Juan José Campanella",
      "Writer": "Eduardo Sacheri, Gastón Gorali, Juan José Campanella",
      "Actors": "Gabriel Almirón, Federico Cecere, Ezequiel Cipols"
    },
    {
      "Title": "The Wolf of Wall Street",
      "Year": "2013",
      "Rated": "R",
      "Released": "25 Dec 2013",
      "Runtime": "180 min",
      "Genre": "Biography, Comedy, Crime",
      "Director": "Martin Scorsese",
      "Writer": "Terence Winter, Jordan Belfort",
      "Actors": "Leonardo DiCaprio, Jonah Hill, Margot Robbie"
    },
    {
      "Title": "Shutter Island",
      "Year": "2010",
      "Rated": "R",
      "Released": "19 Feb 2010",
      "Runtime": "138 min",
      "Genre": "Mystery, Thriller",
      "Director": "Martin Scorsese",
      "Writer": "Laeta Kalogridis, Dennis Lehane",
      "Actors": "Leonardo DiCaprio, Emily Mortimer, Mark Ruffalo"
    },
    {
      "Title": "Sully",
      "Year": "2016",
      "Rated": "PG-13",
      "Released": "09 Sep 2016",
      "Runtime": "96 min",
      "Genre": "Biography, Drama",
      "Director": "Clint Eastwood",
      "Writer": "Todd Komarnicki, Chesley Sullenberger, Jeffrey Zaslow",
      "Actors": "Tom Hanks, Aaron Eckhart, Laura Linney"
    },
    {
      "Title": "To Rome with Love",
      "Year": "2012",
      "Rated": "R",
      "Released": "06 Jul 2012",
      "Runtime": "112 min",
      "Genre": "Comedy, Music, Romance",
      "Director": "Woody Allen",
      "Writer": "Woody Allen",
      "Actors": "Woody Allen, Penélope Cruz, Jesse Eisenberg"
    },
    {
      "Title": "Café Society",
      "Year": "2016",
      "Rated": "PG-13",
      "Released": "05 Aug 2016",
      "Runtime": "96 min",
      "Genre": "Comedy, Drama, Romance",
      "Director": "Woody Allen",
      "Writer": "Woody Allen",
      "Actors": "Jesse Eisenberg, Kristen Stewart, Steve Carell"
    },
    {
      "Title": "Split",
      "Year": "2016",
      "Rated": "PG-13",
      "Released": "20 Jan 2017",
      "Runtime": "117 min",
      "Genre": "Horror, Thriller",
      "Director": "M. Night Shyamalan",
      "Writer": "M. Night Shyamalan",
      "Actors": "James McAvoy, Anya Taylor-Joy, Haley Lu Richardson"
    },
    {
      "Title": "You Will Meet a Tall Dark Stranger",
      "Year": "2010",
      "Rated": "R",
      "Released": "22 Oct 2010",
      "Runtime": "98 min",
      "Genre": "Comedy, Drama, Romance",
      "Director": "Woody Allen",
      "Writer": "Woody Allen",
      "Actors": "Anthony Hopkins, Naomi Watts, Josh Brolin"
    }
  ]
}