{
  "page": 1,
  "per_page": 10,
  "total": 26,
  "total_pages": 3,
  "data": [
    {
      "Title": "Midnight in Paris",
      "Year": "2011",
      "Rated": "PG-13",
      "Released": "10 Jun 2011",
      "Runtime": "94 min",
      "Genre": "Comedy, Fantasy, Romance",
      "Director": "Woody Allen",
      "Writer": "Woody Allen",
      "Actors": "Owen Wilson, Rachel McAdams, Kathy Bates"
    },
    {
      "Title": "The Hateful Eight",
      "Year": "2015",
      "Rated": "R",
      "Released": "30 Dec 2015",
      "Runtime": "168 min",
      "Genre": "Crime, Drama, Mystery",
      "Director": "Quentin Tarantino",
      "Writer": "Quentin Tarantino",
      "Actors": "Samuel L. Jackson, Kurt Russell, Jennifer Jason Leigh"
    },
    {
      "Title": "Silence",
      "Year": "2016",
      "Rated": "R",
      "Released": "13 Jan 2017",
      "Runtime": "161 min",
      "Genre": "Drama, History",
      "Director": "Martin Scorsese",
      "Writer": "Jay Cocks, Martin Scorsese, Shûsaku Endô",
      "Actors": "Andrew Garfield, Adam Driver, Liam Neeson"
    },
    {
      "Title": "The Skin I Live In",
      "Year": "2011",
      "Rated": "R",
      "Released": "02 Sep 2011",
      "Runtime": "120 min",
      "Genre": "Drama, Horror, Thriller",
      "Director": "Pedro Almodóvar",
      "Writer": "Pedro Almodóvar, Agustín Almodóvar, Thierry Jonquet",
      "Actors": "Antonio Banderas, Elena Anaya, Jan Cornet"
    },
    {
      "Title": "Pain and Glory",
      "Year": "2019",
      "Rated": "R",
      "Released": "04 Oct 2019",
      "Runtime": "113 min",
      "Genre": "Drama",
      "Director": "Pedro Almodóvar",
      "Writer": "Pedro Almodóvar",
      "Actors": "Antonio Banderas, Asier Etxeandia, Leonardo Sbaraglia"
    },
    {
      "Title": "The Last Airbender",
      "Year": "2010",
      "Rated": "PG",
      "Released": "01 Jul 2010",
      "Runtime": "103 min",
      "Genre": "Action, Adventure, Family",
      "Director": "M. Night Shyamalan",
      "Writer": "M. Night Shyamalan",
      "Actors": "Noah Ringer, Nicola Peltz, Jackson Rathbone"
    },
    {
      "Title": "Blue Jasmine",
      "Year": "2013",
      "Rated": "PG-13",
      "Released": "23 Aug 2013",
      "Runtime": "98 min",
      "Genre": "Comedy, Drama",
      "Director": "Woody Allen",
      "Writer": "Woody Allen",
      "Actors": "Cate Blanchett, Alec Baldwin, Peter Sarsgaard"
    },
    {
      "Title": "J. Edgar",
      "Year": "2011",
      "Rated": "R",
      "Released": "11 Nov 2011",
      "Runtime": "137 min",
      "Genre": "Biography, Drama, Romance",
      "Director": "Clint Eastwood",
      "Writer": "Dustin Lance Black",
      "Actors": "Leonardo DiCaprio, Armie Hammer, Naomi Watts"
    },
    {
      "Title": "Midnight in Paris",
      "Year": "2011",
      "Rated": "PG-13",
      "Released": "10 Jun 2011",
      "Runtime": "94 min",
      "Genre": "Comedy, Fantasy, Romance",
      "Director": "Woody Allen",
      "Writer": "Woody Allen",
      "Actors": "Owen Wilson, Rachel McAdams, Kathy Bates"
    },
    {
      "Title": "After Earth",
      "Year": "2013",
      "Rated": "PG-13",
      "Released": "31 May 2013",
      "Runtime": "100 min",
      "Genre": "Action, Adventure, Sci-Fi",
      "Director": "M. Night Shyamalan",
      "Writer": "Gary Whitta, M. Night Shyamalan, Will Smith",
      "Actors": "Jaden Smith, David Denman, Will Smith"
    },
    {
      "Title": "Hugo",
      "Year": "2011",
      "Rated": "PG",
      "Released": "23 Nov 2011",
      "Runtime": "126 min",
      "Genre": "Adventure, Drama, Family",
      "Director": "Martin Scorsese",
      "Writer": "John Logan, Brian Selznick",
      "Actors": "Asa Butterfield, Chloë Grace Moretz, Christopher Lee"
    }
  ]
}